Extended pathway analysis • MNet
…
## the extended pathway differential abundance analysis
ExtendDAscore_result <- ePDAlyser(
  c(diff_gene_increase$name, diff_meta_increase$name),
  c(diff_gene_decrease$name, diff_meta_decrease$name),
  c(diff_gene$name, diff_meta$name),
  sort_plot = "category",
  min_measured_num = 20,
  out = "Extended"
)

ExtendDAscore_result

## $result
## # A tibble: 84 × 10
##    Pathway                    DA_score Increase_members_num Decrease_members_num
##    <chr>                         <dbl>                <int>                <int>
##  1 Neomycin, kanamycin and g…   -0.571                    0                    4
##  2 Phenylalanine, tyrosine a…   -0.4                      0                    4
##  3 Biotin metabolism            -0.4                      1                    3
##  4 Oxidative phosphorylation    -0.392                    6                   53
##  5 D-Amino acid metabolism      -0.391                    4                   13
##  6 Cysteine and methionine m…   -0.35                     7                   28
##  7 Phosphonate and phosphina…   -0.333                    2                    6
##  8 Sulfur metabolism            -0.286                    1                    5
##  9 Steroid biosynthesis         -0.263                    2                    7
## 10 Caffeine metabolism          -0.25                     1                    2
## # ℹ 74 more rows
## # ℹ 6 more variables: Measured_members_num <int>, Increase_member_result <chr>,
## #   Decrease_member_result <chr>, Measure_member_result <chr>,
## #   KEGG_pathwayid <chr>, `Pathway Category` <chr>
## 
## $p
…
## the metabolite pathway differential abundance analysis
dascore_result_meta <- ePDAlyser(diff_meta_increase$name,
                               diff_meta_decrease$name,
                               diff_meta$name,
                               sort_plot = "category",
                               min_measured_num = 3,
                               out = "metabolite")

dascore_result_meta

## $result
## # A tibble: 59 × 10
##    Pathway                    DA_score Increase_members_num Decrease_members_num
##    <chr>                         <dbl>                <int>                <int>
##  1 Starch and sucrose metabo…   -1                        0                    2
##  2 Inositol phosphate metabo…   -1                        0                    3
##  3 Ether lipid metabolism       -1                        0                    1
##  4 Selenocompound metabolism    -1                        0                    1
##  5 N-Glycan biosynthesis        -1                        0                    1
##  6 Biotin metabolism            -1                        0                    2
##  7 Caffeine metabolism          -1                        0                    2
##  8 Neomycin, kanamycin and g…   -1                        0                    4
##  9 Glycerophospholipid metab…   -0.909                    0                   10
## 10 Sulfur metabolism            -0.8                      0                    4
## # ℹ 49 more rows
## # ℹ 6 more variables: Measured_members_num <int>, Increase_member_result <chr>,
## #   Decrease_member_result <chr>, Measure_member_result <chr>,
## #   KEGG_pathwayid <chr>, `Pathway Category` <chr>
## 
## $p
…
## the gene pathway differential abundance analysis
dascore_result_gene <- ePDAlyser(diff_gene_increase$name,
                               diff_gene_decrease$name,
                               diff_gene$name,
                               sort_plot = "category",
                               min_measured_num = 10,
                               out = "gene")

dascore_result_gene

## $result
## # A tibble: 83 × 10
##    Pathway                    DA_score Increase_members_num Decrease_members_num
##    <chr>                         <dbl>                <int>                <int>
##  1 Oxidative phosphorylation    -0.372                    6                   48
##  2 Phosphonate and phosphina…   -0.333                    1                    3
##  3 Terpenoid backbone biosyn…   -0.286                    2                    8
##  4 Steroid biosynthesis         -0.263                    2                    7
##  5 Cysteine and methionine m…   -0.261                    6                   18
##  6 Phenylalanine, tyrosine a…   -0.25                     0                    1
##  7 Glycosphingolipid biosynt…   -0.24                     2                    8
##  8 Mannose type O-glycan bio…   -0.227                    2                    7
##  9 Glycosaminoglycan biosynt…   -0.214                    1                    4
## 10 One carbon pool by folate    -0.2                      4                    8
## # ℹ 73 more rows
## # ℹ 6 more variables: Measured_members_num <int>, Increase_member_result <chr>,
## #   Decrease_member_result <chr>, Measure_member_result <chr>,
## #   KEGG_pathwayid <chr>, `Pathway Category` <chr>
## 
## $p
…
