Rountine analysis • MNet
…
result_ML_RF$feature_result

## # A tibble: 114 × 6
##    normal tumor MeanDecreaseAccuracy MeanDecreaseGini names   raw    
##     <dbl> <dbl>                <dbl>            <dbl> <chr>   <fct>  
##  1   4.54  4.16                 4.73            0.525 C00267  C00267 
##  2   4.21  3.68                 4.36            0.435 C00022  C00022 
##  3   4.24  3.53                 4.32            0.503 C00073  C00073 
##  4   4.36  3.29                 4.30            0.493 C05378  C05378 
##  5   4.31  3.65                 4.27            0.526 C00148  C00148 
##  6   3.85  3.04                 4.08            0.449 C05938. C05938 
##  7   3.59  3.84                 4.01            0.429 C05674  C05674 
##  8   3.66  3.95                 4.00            0.529 C02045  C02045 
##  9   4.06  3.16                 3.89            0.505 C02291  C02291 
## 10   3.73  3.22                 3.72            0.546 C02630  C02630 
## # ℹ 104 more rows
…
